Chapter 8 Importing Data | Introductory R: A beginner’s guide to programming, data visualisation and statistical analysis in R
…
You can tell the read_excel() function from the readxl package which sheet to read from and within that spreadsheet you can specify a range of cells to read from, so you can read the UFO data in like this:

UFO <- read_excel("Data/UFO_data.xlsx", sheet = "UFO_data", range = "A3:B910")

str(UFO)
tibble [907 × 2] (S3: tbl_df/tbl/data.frame)
 $ Reports: POSIXct[1:907], format: "2019-03-01" "2019-02-01" ...
 $ Count  : num [1:907] 250 195 317 237 233 266 300 357 406 226 ...

That worked nicely. Because I only included the data from 1900 onwards (you might rememebr that the dates for the years before those are in a different format) the “Reports” column has imported in the POSIXct class which is used to store dates and times. Nice!

A final point to make is that readxl is part of the tidyverse group of packages produced by Hadley Wickham and others at RStudio. One consequence of this is that the format of our imported data is not quite a normal data frame: rather it is something called a tibble. You can see this if you just type the name of the object: if we had a normal data frame with 907 rows then typing its name would print the whole thing to the screen, or at least quite a lot of it depending on exactly how you have R set up. With a tibble you get something different:

UFO
# A tibble: 907 x 2
   Reports             Count
   <dttm>              <dbl>
 1 2019-03-01 00:00:00   250
 2 2019-02-01 00:00:00   195
 3 2019-01-01 00:00:00   317
 4 2018-12-01 00:00:00   237
 5 2018-11-01 00:00:00   233
 6 2018-10-01 00:00:00   266
 7 2018-09-01 00:00:00   300
 8 2018-08-01 00:00:00   357
 9 2018-07-01 00:00:00   406
10 2018-06-01 00:00:00   226
# … with 897 more rows
…
